<svg version="1.1" xmlns="http://www.w3.org/2000/svg" xmlns:xlink="http://www.w3.org/1999/xlink" x="0px" y="0px" width="138px"
	 height="275px" viewBox="0 0 200 275" style="enable-background:new 0 0 138 275;" xml:space="preserve">
<style type="text/css">
	.st0{fill:#1E1E1E;}
</style>
<defs>
</defs>
<polygon class="st0" points="0,275 200,138 0,0 "/>
</svg>
